<?xml version="1.0" standalone="no"?>
<!DOCTYPE svg PUBLIC "-//W3C//DTD SVG 20010904//EN"
 "http://www.w3.org/TR/2001/REC-SVG-20010904/DTD/svg10.dtd">
<svg version="1.0" xmlns="http://www.w3.org/2000/svg"
 width="162.000000pt" height="162.000000pt" viewBox="0 0 162.000000 162.000000"
 preserveAspectRatio="xMidYMid meet">
<metadata>
Created by potrace 1.11, written by Peter Selinger 2001-2013
</metadata>
<g transform="translate(0.000000,162.000000) scale(0.100000,-0.100000)"
fill="#000000" stroke="none">
<path d="M13 1188 c2 -8 21 -13 47 -13 l43 0 26 -75 c15 -41 74 -209 131 -372
79 -226 108 -298 121 -298 12 0 30 40 68 148 84 235 102 285 115 321 l13 34
42 -119 c126 -359 136 -384 151 -384 10 0 39 67 94 223 44 122 103 287 132
367 l53 145 0 -362 c-1 -330 -2 -363 -17 -364 -10 -1 -28 -2 -41 -2 -13 -1
-26 -7 -28 -12 -6 -19 369 -10 455 10 126 29 191 97 197 203 7 126 -57 203
-187 227 l-37 7 42 22 c51 27 77 73 77 139 0 67 -24 102 -90 135 -54 26 -59
27 -279 31 -183 3 -223 1 -219 -10 3 -9 20 -13 52 -12 56 2 59 26 -26 -207
-33 -91 -61 -169 -62 -175 -2 -5 -8 -23 -14 -38 -7 -16 -12 -34 -12 -42 0 -8
-4 -16 -8 -19 -7 -4 -162 456 -162 479 0 3 8 5 18 4 38 -3 72 2 72 11 0 6 -70
10 -191 10 -145 0 -190 -3 -187 -12 3 -7 21 -12 45 -11 l41 1 36 -101 c36
-103 37 -112 19 -157 -5 -14 -22 -61 -38 -105 -15 -44 -30 -83 -34 -87 -4 -4
-36 79 -71 185 -35 105 -69 209 -77 230 -11 35 -11 38 5 36 29 -3 42 1 42 11
0 6 -67 10 -181 10 -140 0 -180 -3 -176 -12z m1277 -18 c49 -14 71 -53 71
-133 1 -101 -33 -160 -99 -173 l-32 -6 0 161 c0 175 -3 169 60 151z m86 -365
c41 -26 57 -62 60 -131 4 -113 -28 -183 -100 -214 -23 -10 -54 -17 -71 -16
l-30 1 -3 189 c-2 127 1 192 8 196 16 10 109 -7 136 -25z"/>
</g>
</svg>
